<svg id="Group_82" data-name="Group 82" xmlns="http://www.w3.org/2000/svg" width="36.729" height="40.343" viewBox="0 0 36.729 40.343">
  <g id="fi-rr-shopping-cart" transform="translate(0 3.831)">
    <path id="Path_4" data-name="Path 4" d="M34.644,6.449a4.5,4.5,0,0,0-3.513-1.7H6.47L6.406,4.19A4.639,4.639,0,0,0,1.864,0H1.525A1.554,1.554,0,0,0,0,1.582,1.554,1.554,0,0,0,1.525,3.164h.339a1.546,1.546,0,0,1,1.515,1.4l2.1,18.508a7.731,7.731,0,0,0,7.575,6.987H28.981a1.583,1.583,0,0,0,0-3.164H13.052a4.59,4.59,0,0,1-4.3-3.164H26.932a7.709,7.709,0,0,0,7.506-6.507l1.2-6.887a4.864,4.864,0,0,0-.991-3.885Zm-2,3.324-1.2,6.888a4.625,4.625,0,0,1-4.51,3.9H8.266L6.83,7.91h24.3a1.5,1.5,0,0,1,1.177.564A1.624,1.624,0,0,1,32.641,9.773Z" fill="#e97730"/>
    <ellipse id="Ellipse_1" data-name="Ellipse 1" cx="1.93" cy="1.93" rx="1.93" ry="1.93" transform="translate(8.988 32.652)" fill="#e97730"/>
    <ellipse id="Ellipse_2" data-name="Ellipse 2" cx="1.93" cy="1.93" rx="1.93" ry="1.93" transform="translate(22.775 32.652)" fill="#e97730"/>
  </g>
  <g id="Group_81" data-name="Group 81" transform="translate(23.466)">
    <ellipse id="Ellipse_18" data-name="Ellipse 18" cx="6.632" cy="6.5" rx="6.632" ry="6.5" transform="translate(0)" fill="#e97730"/>
    <g id="Group_59" data-name="Group 59" transform="translate(2.041 11) rotate(-90)">
      <path id="Path_21" data-name="Path 21" d="M0,0H9.182" transform="translate(4.5 9.182) rotate(-90)" fill="#747474" stroke="#fff" stroke-width="0.8"/>
      <path id="Path_22" data-name="Path 22" d="M0,0H9" transform="translate(0 4.591)" fill="#747474" stroke="#fff" stroke-width="0.8"/>
    </g>
  </g>
</svg>
