<svg xmlns="http://www.w3.org/2000/svg" width="26" height="26" viewBox="0 0 26 26">
  <g id="Layer_2" data-name="Layer 2" transform="translate(0.076)">
    <g id="invisible_box" data-name="invisible box">
      <rect id="Rectangle_28" data-name="Rectangle 28" width="26" height="26" transform="translate(-0.076)" fill="none"/>
      <rect id="Rectangle_29" data-name="Rectangle 29" width="26" height="26" transform="translate(-0.076)" fill="none"/>
    </g>
    <g id="icons_Q2" data-name="icons Q2" transform="translate(4.746 4)">
      <path id="Path_7" data-name="Path 7" d="M13.5,11.425v3.42h4.782a4.8,4.8,0,0,1-4.782,3.6,5.328,5.328,0,0,1-5.075-3.91,5.514,5.514,0,0,1,2.207-6.1,5.2,5.2,0,0,1,6.333.43l2.457-2.52A8.6,8.6,0,0,0,8.9,5.349a9.108,9.108,0,0,0-3.821,10.1A8.81,8.81,0,0,0,13.5,22c7.37,0,8.993-7.065,8.291-10.575Z" transform="translate(-4.746 -4)" fill="#707070"/>
    </g>
  </g>
</svg>
