<svg xmlns="http://www.w3.org/2000/svg" width="18.411" height="18.411" viewBox="0 0 18.411 18.411">
  <path id="fi-rr-search" d="M18.154,17.071,13.582,12.5A7.673,7.673,0,1,0,12.5,13.582l4.573,4.573a.766.766,0,1,0,1.083-1.083Zm-10.5-3.289a6.129,6.129,0,1,1,6.129-6.129,6.129,6.129,0,0,1-6.129,6.129Z" transform="translate(0.032 0.032)" fill="#707070"/>
</svg>
